^C:\USERS\TOM\DESKTOP\GLAD.C
/c /ZI /nologo /W3 /WX- /diagnostics:classic /sdl /Od /Oy- /D _MBCS /Gm /EHsc /RTC1 /MDd /GS /fp:precise /permissive- /Zc:wchar_t /Zc:forScope /Zc:inline /Fo"DEBUG\\" /Fd"DEBUG\VC141.PDB" /Gd /TC /analyze- C:\USERS\TOM\DESKTOP\GLAD.C
^C:\USERS\TOM\SOURCE\REPOS\LAB4_1\LAB4_1\MAIN.CPP
/c /ZI /nologo /W3 /WX- /diagnostics:classic /sdl /Od /Oy- /D _MBCS /Gm /EHsc /RTC1 /MDd /GS /fp:precise /permissive- /Zc:wchar_t /Zc:forScope /Zc:inline /Fo"DEBUG\\" /Fd"DEBUG\VC141.PDB" /Gd /TP /analyze- C:\USERS\TOM\SOURCE\REPOS\LAB4_1\LAB4_1\MAIN.CPP
^C:\USERS\BRANDON\DESKTOP\GLAD.C
/c /ZI /nologo /W3 /WX- /diagnostics:classic /sdl /Od /Oy- /D _MBCS /Gm /EHsc /RTC1 /MDd /GS /fp:precise /permissive- /Zc:wchar_t /Zc:forScope /Zc:inline /Fo"DEBUG\\" /Fd"DEBUG\VC141.PDB" /Gd /TC /analyze- C:\USERS\BRANDON\DESKTOP\GLAD.C
^C:\USERS\BRANDON\DOWNLOADS\LAB4_1\LAB4_1\LAB4_1\MAIN.CPP
/c /ZI /nologo /W3 /WX- /diagnostics:classic /sdl /Od /Oy- /D _MBCS /Gm /EHsc /RTC1 /MDd /GS /fp:precise /permissive- /Zc:wchar_t /Zc:forScope /Zc:inline /Fo"DEBUG\\" /Fd"DEBUG\VC141.PDB" /Gd /TP /analyze- C:\USERS\BRANDON\DOWNLOADS\LAB4_1\LAB4_1\LAB4_1\MAIN.CPP
^C:\USERS\BRANDON\DESKTOP\DESKTOP\CSCI_CLASSES\CSCI_441_GIT\CSCI441-SPRING2018\DESKTOP\GLAD.C
/c /ZI /nologo /W3 /WX- /diagnostics:classic /sdl /Od /Oy- /D _MBCS /Gm /EHsc /RTC1 /MDd /GS /fp:precise /permissive- /Zc:wchar_t /Zc:forScope /Zc:inline /Fo"DEBUG\\" /Fd"DEBUG\VC141.PDB" /Gd /TC /analyze- C:\USERS\BRANDON\DESKTOP\DESKTOP\CSCI_CLASSES\CSCI_441_GIT\CSCI441-SPRING2018\DESKTOP\GLAD.C
^C:\USERS\BRANDON\DESKTOP\DESKTOP\CSCI_CLASSES\CSCI_441_GIT\CSCI441-SPRING2018\LABS\LAB4\LAB4_1\LAB4_1\MAIN.CPP
/c /ZI /nologo /W3 /WX- /diagnostics:classic /sdl /Od /Oy- /D _MBCS /Gm /EHsc /RTC1 /MDd /GS /fp:precise /permissive- /Zc:wchar_t /Zc:forScope /Zc:inline /Fo"DEBUG\\" /Fd"DEBUG\VC141.PDB" /Gd /TP /analyze- C:\USERS\BRANDON\DESKTOP\DESKTOP\CSCI_CLASSES\CSCI_441_GIT\CSCI441-SPRING2018\LABS\LAB4\LAB4_1\LAB4_1\MAIN.CPP
