^C:\USERS\BRANDON\DESKTOP\GLAD.C
C:\USERS\BRANDON\DOWNLOADS\LAB4_1\LAB4_1\LAB4_1\DEBUG\VC141.PDB
^C:\USERS\BRANDON\DESKTOP\DESKTOP\CSCI_CLASSES\CSCI_441_GIT\CSCI441-SPRING2018\LABS\LAB4\LAB4_1\LAB4_1\MAIN.CPP
C:\USERS\BRANDON\DESKTOP\DESKTOP\CSCI_CLASSES\CSCI_441_GIT\CSCI441-SPRING2018\LABS\LAB4\LAB4_1\LAB4_1\DEBUG\VC141.PDB
C:\USERS\BRANDON\DESKTOP\DESKTOP\CSCI_CLASSES\CSCI_441_GIT\CSCI441-SPRING2018\LABS\LAB4\LAB4_1\LAB4_1\DEBUG\VC141.IDB
C:\USERS\BRANDON\DESKTOP\DESKTOP\CSCI_CLASSES\CSCI_441_GIT\CSCI441-SPRING2018\LABS\LAB4\LAB4_1\LAB4_1\DEBUG\MAIN.OBJ
